%YAML 1.1
%TAG !u! tag:unity3d.com,2011:
--- !u!1045 &1
EditorBuildSettings:
  m_ObjectHideFlags: 0
  serializedVersion: 2
  m_Scenes:
  - enabled: 1
    path: Assets/Scenes/IntroScene.unity
    guid: e211595d8b869bf469a5c2d94c07c8bb
  - enabled: 1
    path: Assets/Scenes/Gameplay.unity
    guid: 2cda990e2423bbf4892e6590ba056729
  - enabled: 1
    path: Assets/Scenes/GameOver.unity
    guid: 93f9800e163897149b42622b8a3e13e5
  m_configObjects: {}
